1 10 20
100 200 125
201 210 89
900 1000 174
19 26 24
686 842 171
409 749 171
358 390 121
230 655 145
68 206 125
24 629 144
130 545 144
243 349 144
90 949 179
267 420 144
1 2 2
39 504 144
11 54 113
252 566 144
262 488 144
202 274 128
60 146 122
566 644 132
214 584 144
72 662 145
20 248 128
60 75 116
313 432 144
85 442 144
197 804 171
156 361 144
281 558 144
75 785 171
25 59 113
5 46 112
288 363 144
717 986 179
146 510 144
250 837 171
171 811 171
178 370 144
26 113 119
6 24 21
199 538 144
288 454 144
618 878 179
94 668 145
333 511 142
84 730 171
575 795 171
36 932 179
501 768 171
96 266 128
88 308 128
127 358 144
613 694 145
64 657 145
504 566 137
75 318 131
60 88 116
67 433 144
778 839 135
55 167 122
430 757 171
199 943 179
38 73 116
44 77 116
229 330 144
321 379 144
596 844 171
143 215 125
241 881 179
121 633 144
204 662 145
63 737 171
520 732 171
728 903 179
410 437 134
17 22 21
29 954 179
51 289 128
50 147 122
184 272 128
177 262 128
419 870 171
357 785 171
124 939 179
37 494 144
76 541 144
76 802 171
372 464 134
509 995 179
43 893 179
26 29 112
240 785 171
15 16 18
648 836 171
680 833 171
546 959 179
773 851 153
10 12 15
37 90 116
434 572 142
808 960 179
81 297 128
486 780 171
109 977 179
194 359 144
201 227 115
75 106 119
427 692 145
541 967 179
463 772 171
1 20 21
247 819 171
58 95 116
172 180 81
891 895 99
49 432 144
5 8 17
273 499 144
297 598 144
82 229 125
186 931 179
255 764 171
74 802 171
5 7 17
129 261 128
652 827 171
3 16 20
277 419 144
558 659 145
600 616 132
279 685 145
368 741 171
378 428 134
291 569 144
26 71 113
33 182 125
7 508 144
394 981 179
599 661 145
486 803 171
321 817 171
301 302 17
360 893 179
283 401 144
201 271 128
270 321 131
75 84 111
101 257 128
326 497 144
165 273 128
688 934 179
680 803 171
247 432 144
254 398 144
640 935 179
43 870 171
340 774 171
133 468 144
93 474 144
328 815 171
440 885 179
230 889 179
528 569 137
39 179 125
43 248 128
541 953 179
152 269 128
18 35 112
444 830 171
317 421 144
140 577 144
149 332 144
382 437 134
247 436 144
47 440 144
628 831 171
278 406 144
337 801 171
115 899 179
194 269 128
466 796 171
506 771 171
173 184 94
30 486 144
254 334 144
396 892 179
291 923 179
209 338 144
148 910 179
117 269 128
419 587 142
351 540 142
22 53 112
404 719 171
110 428 144
143 204 125
74 813 171
411 566 142
13 107 119
290 868 171
2 39 112
233 402 144
126 366 144
449 717 171
737 970 179
262 355 144
169 289 128
59 178 125
370 881 179
249 255 110
517 627 137
95 975 179
313 511 144
18 151 122
151 187 125
346 369 126
216 977 179
133 829 171
452 629 142
217 726 171
145 402 144
139 327 144
47 560 144
29 138 122
376 644 142
523 773 171
746 773 153
177 544 144
180 566 144
26 273 128
177 387 144
564 725 171
275 568 144
67 286 128
27 347 144
250 411 144
204 214 102
413 457 134
498 602 137
124 155 122
97 325 131
70 129 122
429 788 171
620 787 171
9 79 116
600 758 171
71 221 125
425 492 142
110 813 171
277 510 144
15 34 112
588 704 171
69 331 144
72 109 119
9 220 125
292 312 118
88 559 144
273 544 144
557 577 106
417 737 171
1 3 8
32 216 125
49 332 144
3 5 8
253 492 144
589 669 145
587 738 171
130 643 144
51 56 113
6 309 128
248 605 144
54 57 113
117 911 179
526 547 137
679 720 171
404 878 179
460 925 179
12 370 144
599 804 171
110 116 114
169 421 144
843 921 179
41 540 144
77 205 125
176 626 144
16 163 122
1 5 8
364 585 142
7 213 125
103 806 171
632 907 179
183 701 145
153 539 144
281 292 118
214 281 128
369 400 121
252 335 144
